\relax 
\@writefile{toc}{\contentsline {section}{\numberline {1}Overview}{2}}
\@writefile{toc}{\contentsline {section}{\numberline {2}Runtime}{2}}
\@writefile{toc}{\contentsline {section}{\numberline {3}Design}{2}}
\@writefile{toc}{\contentsline {subsection}{\numberline {3.1}Tools \& Libraries}{2}}
\@writefile{toc}{\contentsline {subsection}{\numberline {3.2}Pipeline}{2}}
\@writefile{toc}{\contentsline {subsection}{\numberline {3.3}Rule Based Matching}{2}}
\@writefile{toc}{\contentsline {subsection}{\numberline {3.4}Flexibility}{3}}
\@writefile{toc}{\contentsline {subsection}{\numberline {3.5}N-grams}{3}}
\@writefile{toc}{\contentsline {subsection}{\numberline {3.6}Bayesian Classifiers}{3}}
\newlabel{sec:classifiers}{{3.6}{3}}
\citation{norvig-grams}
\citation{wordnet}
\citation{Weizenbaum:eliza}
\@writefile{toc}{\contentsline {subsection}{\numberline {3.7}Feelings and Mood}{4}}
\newlabel{sec:feelings}{{3.7}{4}}
\@writefile{toc}{\contentsline {subsection}{\numberline {3.8}Context}{4}}
\@writefile{toc}{\contentsline {subsection}{\numberline {3.9}Responses}{4}}
\newlabel{sec:responses}{{3.9}{4}}
\@writefile{toc}{\contentsline {section}{\numberline {4}Dialogues}{4}}
\citation{Hutchens:turing}
\bibstyle{unsrt}
\bibdata{bibliography}
\bibcite{norvig-grams}{1}
\@writefile{toc}{\contentsline {section}{\numberline {5}Reflections}{6}}
\@writefile{toc}{\contentsline {section}{\numberline {6}Conclusion}{6}}
\bibcite{wordnet}{2}
\bibcite{Weizenbaum:eliza}{3}
\bibcite{Hutchens:turing}{4}
\newlabel{LastPage}{{}{7}}
\xdef\lastpage@lastpage{7}
\gdef\lastpage@lastpageHy{}
